ClientId: ee93a5fd-c0fd-4b5f-910d-c0204e861486 
TenantId: 64e10837-3fd6-461d-acf4-f9b06fe2a23e 
ClientSecret: 19_N1Un997HoBWw.-~Dc~-i1~yUekPUs_o 
scope: https:/graph.microsoft.com/.default 
Authority: https//login.microsoft.com/{0} 
